{
    "0"  : "Reserved",
    "1"  : "Start of trip",
    "2"  : "End of trip",
    "3"  : "Elapsed time",
    "4"  : "Speed change",
    "5"  : "Heading change",
    "6"  : "Distance travelled",
    "7"  : "Maximum speed",
    "8"  : "Stationary",
    "9"  : "Digital Input Changed",
    "10" : "Digital Output Changed",
    "11" : "Heartbeat",
    "12" : "Harsh Brake",
    "13" : "Harsh Acceleration",
    "14" : "Harsh Cornering",
    "15" : "External Power Change",
    "16" : "System Power Monitoring",
    "17" : "Driver ID Tag Read",
    "18" : "Over speed",
    "19" : "Fuel sensor record",
    "20" : "Towing Alert",
    "21" : "Debug",
    "22" : "SDI-12 sensor data",
    "23" : "Accident",
    "24" : "Accident Data",
    "25" : "Sensor valueelapsed time",
    "26" : "Sensor value change",
    "27" : "Sensor alarm",
    "28" : "Rain Gauge Tipped",
    "29" : "Tamper Alert",
    "30" : "BLOB notification",
    "31" : "Time and Attendance",
    "32" : "Trip Restart",
    "33" : "Tag Gained",
    "34" : "Tag Update",
    "35" : "Tag Lost",
    "36" : "Recovery Mode On",
    "37" : "Recovery Mode Off",
    "38" : "Immobiliser On ",
    "39" : "Immobiliser Off",
    "40" : "Garmin FMI Stop Response",
    "41" : "Lone Worker Alarm"
}